id,name,model_id:id,group_id:id,perm_read,perm_write,perm_create,perm_unlink
res_partner_admin_user,res_partner_admin_user,model_res_partner,group_income_admin_user,1,1,1,1
res_partner_guest_user,res_partner_guest_user,model_res_partner,group_income_guest_user,1,0,0,0
res_partner_billing_user,res_partner_billing_user,model_res_partner,group_income_billing_user,1,0,0,0
res_partner_services_user,res_partner_services_user,model_res_partner,group_income_services_user,1,0,0,0
res_partner_approval_user,res_partner_approval_user,model_res_partner,group_income_approval_user,1,0,0,0
account_move_admin_user,account_move_admin_user,model_account_move,group_income_admin_user,1,1,1,1
account_move_guest_user,account_move_guest_user,model_account_move,group_income_guest_user,1,0,0,0
account_move_billing_user,account_move_billing_user,model_account_move,group_income_billing_user,1,0,0,0
account_move_services_user,account_move_services_user,model_account_move,group_income_services_user,1,1,0,0
account_move_approval_user,account_move_approval_user,model_account_move,group_income_approval_user,1,0,0,0
account_payment_admin_user,account_payment_admin_user,model_account_payment,group_income_admin_user,1,1,1,1
account_payment_guest_user,account_payment_guest_user,model_account_payment,group_income_guest_user,1,0,0,0
account_payment_billing_user,account_payment_billing_user,model_account_payment,group_income_billing_user,1,0,0,0
account_payment_services_user,account_payment_services_user,model_account_payment,group_income_services_user,1,0,0,0
account_payment_approval_user,account_payment_approval_user,model_account_payment,group_income_approval_user,1,0,0,0
product_template_admin_user,product_template_admin_user,account.model_product_template,group_income_admin_user,1,1,1,1
product_template_guest_user,product_template_guest_user,account.model_product_template,group_income_guest_user,1,0,0,0
product_template_billing_user,product_template_billing_user,account.model_product_template,group_income_billing_user,0,0,0,0
product_template_services_user,product_template_services_user,account.model_product_template,group_income_services_user,0,0,0,0
product_template_approval_user,product_template_approval_user,account.model_product_template,group_income_approval_user,1,0,0,0
activity_catalog_admin_user,activity_catalog_admin_user,model_activity_catalog,group_income_admin_user,1,1,1,1
activity_catalog_guest_user,activity_catalog_guest_user,model_activity_catalog,group_income_guest_user,1,0,0,0
activity_catalog_billing_user,activity_catalog_billing_user,model_activity_catalog,group_income_billing_user,0,0,0,0
activity_catalog_services_user,activity_catalog_services_user,model_activity_catalog,group_income_services_user,0,0,0,0
activity_catalog_approval_user,activity_catalog_approval_user,model_activity_catalog,group_income_approval_user,1,0,0,0
account_journal_admin_user,account_journal_admin_user,model_account_journal,group_income_admin_user,1,1,1,1
account_journal_guest_user,account_journal_guest_user,model_account_journal,group_income_guest_user,1,0,0,0
account_journal_billing_user,account_journal_billing_user,model_account_journal,group_income_billing_user,0,0,0,0
account_journal_services_user,account_journal_services_user,model_account_journal,group_income_services_user,0,0,0,0
account_journal_approval_user,account_journal_approval_user,model_account_journal,group_income_approval_user,1,0,0,0
deposit_certificate_admin_user,deposit_certificate_admin_user,model_deposit_certificate_type,group_income_admin_user,1,1,1,1
deposit_certificate_guest_user,deposit_certificate_guest_user,model_deposit_certificate_type,group_income_guest_user,1,0,0,0
deposit_certificate_billing_user,deposit_certificate_billing_user,model_deposit_certificate_type,group_income_billing_user,0,0,0,0
deposit_certificate_services_user,deposit_certificate_services_user,model_deposit_certificate_type,group_income_services_user,0,0,0,0
deposit_certificate_approval_user,deposit_certificate_approval_user,model_deposit_certificate_type,group_income_approval_user,1,0,0,0
sub_origin_resource_admin_user,sub_origin_resource_admin_user,model_sub_origin_resource,group_income_admin_user,1,1,1,1
sub_origin_resource_guest_user,sub_origin_resource_guest_user,model_sub_origin_resource,group_income_guest_user,1,0,0,0
sub_origin_resource_billing_user,sub_origin_resource_billing_user,model_sub_origin_resource,group_income_billing_user,0,0,0,0
sub_origin_resource_services_user,sub_origin_resource_services_user,model_sub_origin_resource,group_income_services_user,0,0,0,0
sub_origin_resource_approval_user,sub_origin_resource_approval_user,model_sub_origin_resource,group_income_approval_user,0,0,0,0
association_distribution_ie_accounts_admin_user,association_distribution_ie_accounts_admin_user,model_association_distribution_ie_accounts,group_income_admin_user,1,1,1,1
association_distribution_ie_accounts_guest_user,association_distribution_ie_accounts_guest_user,model_association_distribution_ie_accounts,group_income_guest_user,1,0,0,0
association_distribution_ie_accounts_billing_user,association_distribution_ie_accounts_billing_user,model_association_distribution_ie_accounts,group_income_billing_user,0,0,0,0
association_distribution_ie_accounts_services_user,association_distribution_ie_accounts_services_user,model_association_distribution_ie_accounts,group_income_services_user,0,0,0,0
association_distribution_ie_accounts_approval_user,association_distribution_ie_accounts_approval_user,model_association_distribution_ie_accounts,group_income_approval_user,0,0,0,0
association_distribution_ie_accounts_base,association_distribution_ie_accounts_base,model_association_distribution_ie_accounts,base.group_user,1,0,0,0
association_distribution_ie_accounts_line_admin_user,association_distribution_ie_accounts_line_admin_user,model_association_distribution_ie_accounts_line,group_income_admin_user,1,1,1,1
association_distribution_ie_accounts_line_guest_user,association_distribution_ie_accounts_line_guest_user,model_association_distribution_ie_accounts_line,group_income_guest_user,1,0,0,0
association_distribution_ie_accounts_line_billing_user,association_distribution_ie_accounts_line_billing_user,model_association_distribution_ie_accounts_line,group_income_billing_user,0,0,0,0
association_distribution_ie_accounts_line_services_user,association_distribution_ie_accounts_line_services_user,model_association_distribution_ie_accounts_line,group_income_services_user,0,0,0,0
association_distribution_ie_accounts_line_approval_user,association_distribution_ie_accounts_line_approval_user,model_association_distribution_ie_accounts_line,group_income_approval_user,0,0,0,0
association_distribution_ie_accounts_line_base,association_distribution_ie_accounts_line_base,model_association_distribution_ie_accounts_line,base.group_user,1,0,0,0
income_invoice_move_line_admin_user,income_invoice_move_line_admin_user,model_income_invoice_move_line,group_income_admin_user,1,1,1,1
income_invoice_move_line_guest_user,income_invoice_move_line_guest_user,model_income_invoice_move_line,group_income_guest_user,1,0,0,0
income_invoice_move_line_billing_user,income_invoice_move_line_billing_user,model_income_invoice_move_line,group_income_billing_user,0,0,0,0
income_invoice_move_line_services_user,income_invoice_move_line_services_user,model_income_invoice_move_line,group_income_services_user,0,0,0,0
income_invoice_move_line_approval_user,income_invoice_move_line_approval_user,model_income_invoice_move_line,group_income_approval_user,0,0,0,0
payment_of_income_admin_user,payment_of_income_admin_user,model_payment_of_income,group_income_admin_user,1,1,1,1
payment_of_income_guest_user,payment_of_income_guest_user,model_payment_of_income,group_income_guest_user,1,0,0,0
payment_of_income_billing_user,payment_of_income_billing_user,model_payment_of_income,group_income_billing_user,0,0,0,0
payment_of_income_services_user,payment_of_income_services_user,model_payment_of_income,group_income_services_user,0,0,0,0
payment_of_income_approval_user,payment_of_income_approval_user,model_payment_of_income,group_income_approval_user,0,0,0,0
payment_of_income_base,payment_of_income_base,model_payment_of_income,base.group_user,1,0,0,0
res_partner_bank_admin_user,res_partner_bank_admin_user,model_res_partner_bank,group_income_admin_user,1,1,1,1
res_partner_bank_guest_user,res_partner_bank_guest_user,model_res_partner_bank,group_income_guest_user,1,0,0,0
res_partner_bank_billing_user,res_partner_bank_billing_user,model_res_partner_bank,group_income_billing_user,0,0,0,0
res_partner_bank_services_user,res_partner_bank_services_user,model_res_partner_bank,group_income_services_user,0,0,0,0
res_partner_bank_approval_user,res_partner_bank_approval_user,model_res_partner_bank,group_income_approval_user,0,0,0,0
sender_recipient_trades_admin_user,sender_recipient_trades_admin_user,model_sender_recipient_trades,group_income_admin_user,1,1,1,1
sender_recipient_trades_guest_user,sender_recipient_trades_guest_user,model_sender_recipient_trades,group_income_guest_user,1,0,0,0
sender_recipient_trades_billing_user,sender_recipient_trades_billing_user,model_sender_recipient_trades,group_income_billing_user,0,0,0,0
sender_recipient_trades_services_user,sender_recipient_trades_services_user,model_sender_recipient_trades,group_income_services_user,0,0,0,0
sender_recipient_trades_approval_user,sender_recipient_trades_approval_user,model_sender_recipient_trades,group_income_approval_user,0,0,0,0
adequacies_admin_user,adequacies_admin_user,model_adequacies,group_income_admin_user,1,1,1,1
adequacies_guest_user,adequacies_guest_user,model_adequacies,group_income_guest_user,1,0,0,0
adequacies_billing_user,adequacies_billing_user,model_adequacies,group_income_billing_user,0,0,0,0
adequacies_services_user,adequacies_services_user,model_adequacies,group_income_services_user,0,0,0,0
adequacies_approval_user,adequacies_approval_user,model_adequacies,group_income_approval_user,0,0,0,
res_company_admin_user,res_company_admin_user,model_res_company,group_income_admin_user,1,1,1,1
res_company_guest_user,res_company_guest_user,model_res_company,group_income_guest_user,1,0,0,0
res_company_billing_user,res_company_billing_user,model_res_company,group_income_billing_user,0,0,0,0
res_company_services_user,res_company_services_user,model_res_company,group_income_services_user,0,0,0,0
res_company_approval_user,res_company_approval_user,model_res_company,group_income_approval_user,0,0,0,0

account_move_line_income_guest_user,account_move_line_income_guest_user,account.model_account_move_line,group_income_guest_user,1,0,0,0
account_partial_reconcile_income_guest_user,account_partial_reconcile_income_guest_user,account.model_account_partial_reconcile,group_income_guest_user,1,0,0,0
account_analytic_tag_income_guest_user,account_analytic_tag_income_guest_user,account.model_account_analytic_tag,group_income_guest_user,1,0,0,0
account_payment_method_income_guest_user,account_payment_method_income_guest_user,account.model_account_payment_method,group_income_guest_user,1,0,0,0
account_report_manager_income_guest_user,account_report_manager_income_guest_user,account_reports.model_account_report_manager,group_income_guest_user,1,0,0,0
account_report_footnote_income_guest_user,account_report_footnote_income_guest_user,account_reports.model_account_report_footnote,group_income_guest_user,1,0,0,0

siif_income_handbooks_admin,Manuales/tutoriales General,model_siif_income_handbooks,jt_income.siif_income_tutorials_admin,1,1,1,1
siif_income_handbooks_general,Manuales/tutoriales Usuario,model_siif_income_handbooks,jt_income.siif_income_tutorials_user,1,0,0,0
siif_income_videos_admin,SIIF Income Videos Admin,model_siif_income_video,jt_income.siif_income_tutorials_admin,1,1,1,1
siif_income_videos_general,SIIF Income Videos,model_siif_income_video,jt_income.siif_income_tutorials_user,1,0,0,0
bank_movements_admin_user,bank.movements.admin.user,jt_finance.model_bank_movements,jt_income.group_income_admin_user,1,1,1,1
bank_movements_project_coordinator_user,bank.movements.project.coordinator.user,jt_finance.model_bank_movements,jt_income.group_income_project_coordinator_user,1,1,1,1
bank_movements_finance_user,bank.movements.finance.user,jt_finance.model_bank_movements,jt_income.group_income_finance_user,1,1,1,0
bank_movements_dependence_user,bank.movements.dependence.user,jt_finance.model_bank_movements,jt_income.group_income_dependence_user,1,1,1,0



access_ledger_accounts_conversion_catalog_cd_finance_user,ledger_accounts_conversion_catalog_cd_finance_user,account.model_account_group,jt_income.group_income_cd_finance_user,1,0,0,0
access_ledger_accounts_conversion_catalog_cd_accounting_user,ledger_accounts_conversion_catalog_cd_accounting_user,account.model_account_group,jt_income.group_income_cd_accounting_user,1,0,0,0
access_ledger_accounts_conversion_catalog_cd_administrator,ledger_accounts_conversion_catalog_cd_administrator,account.model_account_group,jt_income.group_income_cd_administrator,1,0,0,0

access_certificate_deposit_type_cd_finance_user,certificate_deposit_type_cd_finance_user,model_deposit_certificate_type,jt_income.group_income_cd_finance_user,1,0,0,0
access_certificate_deposit_type_cd_accounting_user,certificate_deposit_type_cd_accounting_user,model_deposit_certificate_type,jt_income.group_income_cd_accounting_user,1,0,0,0
access_certificate_deposit_type_cd_administrator,certificate_deposit_type_cd_administrator,model_deposit_certificate_type,jt_income.group_income_cd_administrator,1,1,1,1

access_returned_check_notification_form_cd_finance_user,returned_check_notification_form_cd_finance_user,model_sender_recipient_trades,jt_income.group_income_cd_finance_user,1,0,0,0
access_returned_check_notification_form_cd_accounting_user,returned_check_notification_form_cd_accounting_user,model_sender_recipient_trades,jt_income.group_income_cd_accounting_user,1,0,0,0
access_returned_check_notification_form_cd_administrator,returned_check_notification_form_cd_administrator,model_sender_recipient_trades,jt_income.group_income_cd_administrator,1,0,0,0

activity_catalog_fac_administrator,activity.catalog.fac.admin.user,model_activity_catalog,jt_income.group_income_fac_administrator_user,1,1,1,1
activity_catalog_fac_finance,activity.catalog.fac.finance.user,model_activity_catalog,jt_income.group_income_fac_finance_user,1,0,0,0
activity_catalog_fac_accounting,activity.catalog.fac.accounting.user,model_activity_catalog,jt_income.group_income_fac_accounting_user,1,0,0,0

association_distribution_ie_accounts_fac_administrator,association.distribution.ie.accounts.fac.admin.user,model_association_distribution_ie_accounts,jt_income.group_income_fac_administrator_user,1,1,1,1
association_distribution_ie_accounts_fac_finance,association.distribution.ie.accounts.fac.finance.user,model_association_distribution_ie_accounts,jt_income.group_income_fac_finance_user,1,0,0,0
association_distribution_ie_accounts_fac_accounting,association.distribution.ie.accounts.fac.accounting.user,model_association_distribution_ie_accounts,jt_income.group_income_fac_accounting_user,1,0,0,0

payment_of_income_fac_administrator,payment.of.income.fac.admin.user,model_payment_of_income,jt_income.group_income_fac_administrator_user,1,1,1,1
payment_of_income_fac_finance,payment.of.income.fac.finance.user,model_payment_of_income,jt_income.group_income_fac_finance_user,1,0,0,0
payment_of_income_fac_accounting,payment.of.income.fac.accounting.user,model_payment_of_income,jt_income.group_income_fac_accounting_user,1,0,0,0

income_invoice_move_line_fac_admin,income.invoice.move.line.fac.admin.user,model_income_invoice_move_line,jt_income.group_income_fac_administrator_user,1,1,1,1
income_invoice_move_line_fac_finance,income.invoice.move.line.fac.finance.user,model_income_invoice_move_line,jt_income.group_income_fac_finance_user,1,0,0,0
income_invoice_move_line_fac_accounting,income.invoice.move.line.fac.accounting.user,model_income_invoice_move_line,jt_income.group_income_fac_accounting_user,1,0,0,0

res_partner_fac_admin,res.partner.fac.admin.user,account.model_res_partner,jt_income.group_income_fac_administrator_user,1,0,0,0
res_partner_fac_finance,res.partner.fac.finance.user,account.model_res_partner,jt_income.group_income_fac_finance_user,1,0,0,0
res_partner_fac_accounting,res.partner.fac.accounting.user,account.model_res_partner,jt_income.group_income_fac_accounting_user,1,0,0,0

account_payment_fac_admin,account.payment.fac.admin.user,account.model_account_payment,jt_income.group_income_fac_administrator_user,1,0,0,0
account_payment_fac_finance,account.payment.fac.finance.user,account.model_account_payment,jt_income.group_income_fac_finance_user,1,0,0,0
account_payment_fac_accounting,account.payment.fac.accounting.user,account.model_account_payment,jt_income.group_income_fac_accounting_user,1,0,0,0

account_move_fac_admin,account.move.fac.admin.user,account.model_account_move,jt_income.group_income_fac_administrator_user,1,1,1,1
account_move_fac_finance,account.move.fac.finance.user,account.model_account_move,jt_income.group_income_fac_finance_user,1,0,0,0
account_move_fac_accounting,account.move.fac.accounting.user,account.model_account_move,jt_income.group_income_fac_accounting_user,1,0,0,0

account_payment_sdnc_admin,account.payment.sdnc.admin.user,account.model_account_payment,jt_income.group_income_sdnc_administrator_user,1,0,0,0
account_payment_sdnc_finance,account.payment.sdnc.finance.user,account.model_account_payment,jt_income.group_income_sdnc_finance_user,1,0,0,0
account_payment_sdnc_accounting,account.payment.sdnc.accounting.user,account.model_account_payment,jt_income.group_income_sdnc_accounting_user,1,0,0,0

access_siif_request_donation_vehicle,siif.request.donation.vehicle,sidia.model_sidia_request_donation_vehicle,account.group_account_invoice,1,0,0,0
access_siif_request_settlement,siif_request_settlement,sidia.model_sidia_request_settlement,account.group_account_invoice,1,0,0,0
access_siif_request_donation,siif_request_donation,sidia.model_sidia_request_donation,account.group_account_invoice,1,0,0,0







